<?xml version="1.0" encoding="UTF-8" standalone="no"?>
<!-- Created with Inkscape (http://www.inkscape.org/) -->

<svg
   xmlns:dc="http://purl.org/dc/elements/1.1/"
   xmlns:cc="http://creativecommons.org/ns#"
   xmlns:rdf="http://www.w3.org/1999/02/22-rdf-syntax-ns#"
   xmlns:svg="http://www.w3.org/2000/svg"
   xmlns="http://www.w3.org/2000/svg"
   xmlns:sodipodi="http://sodipodi.sourceforge.net/DTD/sodipodi-0.dtd"
   xmlns:inkscape="http://www.inkscape.org/namespaces/inkscape"
   width="210mm"
   height="210mm"
   viewBox="0 0 210 210"
   version="1.1"
   id="svg8"
   inkscape:version="0.92.5 (2060ec1f9f, 2020-04-08)"
   sodipodi:docname="LHG.svg"
   inkscape:export-filename="/home/jfebles/bitmap.png"
   inkscape:export-xdpi="96"
   inkscape:export-ydpi="96">
  <defs
     id="defs2" />
  <sodipodi:namedview
     id="base"
     pagecolor="#ffffff"
     bordercolor="#666666"
     borderopacity="1.0"
     inkscape:pageopacity="0.0"
     inkscape:pageshadow="2"
     inkscape:zoom="0.54466728"
     inkscape:cx="319.89664"
     inkscape:cy="472.55484"
     inkscape:document-units="mm"
     inkscape:current-layer="g996"
     showgrid="false"
     showguides="true"
     inkscape:guide-bbox="true"
     inkscape:window-width="1920"
     inkscape:window-height="1015"
     inkscape:window-x="0"
     inkscape:window-y="0"
     inkscape:window-maximized="1">
    <sodipodi:guide
       position="204.77606,65.486763"
       orientation="1,0"
       id="guide99"
       inkscape:locked="false" />
    <sodipodi:guide
       position="42.227488,82.695498"
       orientation="1,0"
       id="guide101"
       inkscape:locked="false" />
  </sodipodi:namedview>
  <metadata
     id="metadata5">
    <rdf:RDF>
      <cc:Work
         rdf:about="">
        <dc:format>image/svg+xml</dc:format>
        <dc:type
           rdf:resource="http://purl.org/dc/dcmitype/StillImage" />
        <dc:title></dc:title>
      </cc:Work>
    </rdf:RDF>
  </metadata>
  <g
     inkscape:label="Capa 1"
     inkscape:groupmode="layer"
     id="layer1"
     transform="translate(0,-87)">
    <g
       id="g967"
       transform="translate(-20.652712,10.45077)">
      <g
         id="g996">
        <g
           aria-label="HOME"
           transform="matrix(1.1947594,0,0,0.8369886,239.97066,-54.892074)"
           style="font-style:normal;font-variant:normal;font-weight:normal;font-stretch:normal;font-size:51.44757462px;line-height:1.25;font-family:'Party Confetti';-inkscape-font-specification:'Party Confetti';letter-spacing:4.42906427px;word-spacing:0px;fill:#0055d4;fill-opacity:1;stroke:none;stroke-width:2.17899299;stroke-opacity:1"
           id="text841-3"
           inkscape:export-filename="/home/jfebles/text841-3.png"
           inkscape:export-xdpi="96"
           inkscape:export-ydpi="96">
          <g
             id="g1146"
             transform="translate(-435.90842,184.98952)">
            <path
               id="path998-0"
               style="font-style:normal;font-variant:normal;font-weight:900;font-stretch:normal;font-size:51.44757462px;line-height:1.25;font-family:'Mango Grotesque';-inkscape-font-specification:'Mango Grotesque Heavy';letter-spacing:7.30795574px;word-spacing:0px;fill:#0055d4;fill-opacity:1;stroke:none;stroke-width:2.17899299;stroke-opacity:1"
               d="m 505.00165,42.396843 h -7.71713 v 14.971242 h -1.02896 V 42.396843 h -7.71713 v 36.013301 h 7.71713 V 63.541796 h 1.02896 v 14.868348 h 7.71713 z"
               inkscape:connector-curvature="0" />
            <path
               id="path1002-3"
               style="font-style:normal;font-variant:normal;font-weight:900;font-stretch:normal;font-size:51.44757462px;line-height:1.25;font-family:'Mango Grotesque';-inkscape-font-specification:'Mango Grotesque Heavy';letter-spacing:7.30795574px;word-spacing:0px;fill:#0055d4;fill-opacity:1;stroke:none;stroke-width:2.17899299;stroke-opacity:1"
               d="m 561.70149,42.396843 h -11.267 l -0.20581,22.071008 -0.15433,3.704226 h -0.30868 l -0.15435,-3.704226 -0.20579,-22.071008 h -11.26702 v 36.013301 h 7.20266 l -1.59488,-23.048513 -0.15434,-3.755674 0.30868,-0.05145 0.46304,3.807121 2.00646,23.048513 h 7.09976 l 2.00645,-23.048513 0.46303,-3.807121 0.30869,0.05145 -0.15434,3.755674 -1.59489,23.048513 h 7.20266 z"
               inkscape:connector-curvature="0" />
            <path
               id="path1004-6"
               style="font-style:normal;font-variant:normal;font-weight:900;font-stretch:normal;font-size:51.44757462px;line-height:1.25;font-family:'Mango Grotesque';-inkscape-font-specification:'Mango Grotesque Heavy';letter-spacing:7.30795574px;word-spacing:0px;fill:#0055d4;fill-opacity:1;stroke:none;stroke-width:2.17899299;stroke-opacity:1"
               d="m 581.92272,42.396843 h -11.88438 v 36.013301 h 12.34741 v -6.173708 h -4.63028 v -8.69464 h 3.85857 v -6.173711 h -3.85857 v -8.797534 h 4.16725 z"
               inkscape:connector-curvature="0" />
            <g
               id="text841-3-2-0"
               style="font-style:normal;font-variant:normal;font-weight:normal;font-stretch:normal;font-size:76.88744354px;line-height:1.25;font-family:'Party Confetti';-inkscape-font-specification:'Party Confetti';letter-spacing:6.61915445px;word-spacing:0px;fill:#0055d4;fill-opacity:1;stroke:none;stroke-width:3.25646448;stroke-opacity:1"
               transform="matrix(1.0587236,0,0,0.94453357,430.69874,-9.9340864)"
               aria-label="GYM">
              <path
                 id="path1007-6"
                 style="font-style:normal;font-variant:normal;font-weight:900;font-stretch:normal;font-family:'Mango Grotesque';-inkscape-font-specification:'Mango Grotesque Heavy';letter-spacing:2.48336101px;fill:#0055d4;stroke-width:3.25646448"
                 d="m 67.520698,107.05881 v 10.91802 h 11.533116 v -9.22649 c 0,-8.45762 -5.074571,-12.301995 -12.301991,-12.301995 -7.150532,0 -12.301991,3.844375 -12.301991,12.301995 v 31.44696 c 0,8.45762 2.152849,12.37888 6.91987,12.37888 4.075035,0 6.535433,-2.92172 6.535433,-6.45855 h 0.30755 l 0.691987,5.30524 H 79.053814 V 123.0514 H 66.905598 v 9.22649 h 0.999537 v 9.61093 c 0,1.07643 -0.461325,1.46087 -0.999537,1.46087 -0.538212,0 -0.922649,-0.46133 -0.922649,-1.46087 v -34.83001 c 0,-0.99953 0.230662,-1.38397 0.768874,-1.38397 0.538212,0 0.768875,0.38444 0.768875,1.38397 z"
                 inkscape:connector-curvature="0" />
              <path
                 id="path1009-2"
                 style="font-style:normal;font-variant:normal;font-weight:900;font-stretch:normal;font-family:'Mango Grotesque';-inkscape-font-specification:'Mango Grotesque Heavy';letter-spacing:2.48336101px;fill:#0055d4;stroke-width:3.25646448"
                 d="M 105.75648,97.601656 H 94.223367 l -0.307549,22.220474 -0.230663,5.53589 H 93.223831 L 93.070056,119.82213 92.685619,97.601656 H 81.152502 l 6.535433,38.443724 v 15.37749 h 11.533116 v -15.37749 z"
                 inkscape:connector-curvature="0" />
              <path
                 id="path1011-6"
                 style="font-style:normal;font-variant:normal;font-weight:900;font-stretch:normal;font-family:'Mango Grotesque';-inkscape-font-specification:'Mango Grotesque Heavy';letter-spacing:2.48336101px;fill:#0055d4;stroke-width:3.25646448"
                 d="M 144.22315,97.601656 H 127.3848 l -0.30755,32.984714 -0.23067,5.5359 h -0.46132 l -0.23066,-5.5359 -0.30755,-32.984714 H 109.0087 v 53.821214 h 10.76424 l -2.38351,-34.44558 -0.23066,-5.61278 0.46132,-0.0769 0.69199,5.68967 2.99861,34.44558 h 10.61046 l 2.99862,-34.44558 0.69198,-5.68967 0.46133,0.0769 -0.23067,5.61278 -2.38351,34.44558 h 10.76425 z"
                 inkscape:connector-curvature="0" />
            </g>
            <g
               id="g981-1"
               transform="matrix(0.83698861,0,0,1.1947594,444.18109,-9.3151458)">
              <g
                 aria-label="LIBRE"
                 style="font-style:normal;font-variant:normal;font-weight:normal;font-stretch:normal;font-size:61.46747589px;line-height:1.25;font-family:'Party Confetti';-inkscape-font-specification:'Party Confetti';letter-spacing:5.29166651px;word-spacing:0px;fill:#0055d4;fill-opacity:1;stroke:none;stroke-width:2.60337257;stroke-opacity:1"
                 id="text841-8"
                 transform="matrix(1,0,0,0.64028712,6.7183521,-13.934088)">
                <path
                   d="m 46.481042,42.749308 v 43.027233 h 14.13752 V 78.400444 H 55.701164 V 42.749308 Z"
                   style="font-style:normal;font-variant:normal;font-weight:900;font-stretch:normal;font-family:'Mango Grotesque';-inkscape-font-specification:'Mango Grotesque Heavy';letter-spacing:5.29166651px;fill:#0055d4;stroke-width:2.60337257"
                   id="path859-7"
                   inkscape:connector-curvature="0" />
                <path
                   d="m 110.01492,51.339965 c 0,-6.761422 -4.05686,-9.834796 -9.8348,-9.834796 h -9.834797 v 43.027233 h 9.834797 c 5.77794,0 9.8348,-3.134841 9.8348,-9.896264 v -4.85593 c 0,-3.688049 -1.65963,-6.392618 -4.67153,-7.31463 v -0.24587 c 2.95044,-0.983479 4.67153,-3.565113 4.67153,-7.253162 z m -9.22013,-1.352284 v 7.560499 c 0,0.860545 -0.1844,1.167882 -0.61467,1.167882 h -0.614676 v -9.834796 h 0.614676 c 0.43027,0 0.61467,0.307337 0.61467,1.106415 z m 0,17.210893 v 8.789849 c 0,0.860545 -0.1844,1.167882 -0.61467,1.167882 H 99.565444 V 66.092159 h 0.614676 c 0.43027,0 0.61467,0.307338 0.61467,1.106415 z"
                   style="font-style:normal;font-variant:normal;font-weight:900;font-stretch:normal;font-family:'Mango Grotesque';-inkscape-font-specification:'Mango Grotesque Heavy';letter-spacing:5.29166651px;fill:#0055d4;stroke-width:2.60337257"
                   id="path863-9"
                   inkscape:connector-curvature="0" />
                <path
                   d="m 116.22854,41.505169 v 43.027233 h 9.22012 V 67.936184 h 0.61467 c 0.43027,0 0.61468,0.307337 0.61468,1.106414 v 9.527459 c 0,2.458699 0.12293,3.933918 0.49174,5.962345 h 9.22012 v -0.24587 c -0.36881,-1.782557 -0.49174,-3.257776 -0.49174,-5.716475 v -6.945825 c 0,-3.688048 -1.65962,-6.392617 -4.67153,-7.31463 v -0.245869 c 2.95044,-0.98348 4.67153,-3.565114 4.67153,-7.253163 v -4.794463 c 0,-6.82289 -4.05686,-10.510938 -9.8348,-10.510938 z m 9.22012,7.376097 h 0.61467 c 0.43027,0 0.61468,0.307337 0.61468,1.106415 v 9.404523 c 0,0.860545 -0.18441,1.167882 -0.61468,1.167882 h -0.61467 z"
                   style="font-style:normal;font-variant:normal;font-weight:900;font-stretch:normal;font-family:'Mango Grotesque';-inkscape-font-specification:'Mango Grotesque Heavy';letter-spacing:5.29166651px;fill:#0055d4;stroke-width:2.60337257"
                   id="path865-2"
                   inkscape:connector-curvature="0" />
                <path
                   d="m 156.61802,41.505169 h -14.19898 v 43.027233 h 14.75219 v -7.376097 h -5.53207 V 66.768302 h 4.61006 v -7.376098 h -4.61006 V 48.881266 h 4.97886 z"
                   style="font-style:normal;font-variant:normal;font-weight:900;font-stretch:normal;font-family:'Mango Grotesque';-inkscape-font-specification:'Mango Grotesque Heavy';letter-spacing:5.29166651px;fill:#0055d4;stroke-width:2.60337257"
                   id="path867-0"
                   inkscape:connector-curvature="0" />
              </g>
              <g
                 id="layer1-3-7-2"
                 transform="matrix(0.14922846,0.03688119,-0.03688119,0.14922846,56.959238,-53.869991)"
                 style="fill:#0055d4">
                <g
                   id="g910-5-3"
                   style="fill:#0055d4;fill-opacity:1;stroke-linejoin:miter">
                  <path
                     id="path908-3-7"
                     d="m 210.45497,409.9893 c 0.027,0 0.058,0.01 0.089,0.0283 0.10368,0.0518 0.17282,0.1901 0.17282,0.2765 0,0.0665 -0.0284,0.0974 -0.0761,0.0974 -0.0267,0 -0.0595,-0.01 -0.0967,-0.0283 -0.0864,-0.0519 -0.17282,-0.19012 -0.17282,-0.27655 0,-0.0665 0.0355,-0.0974 0.0838,-0.0974 z m 0.27908,0.63744 c 0.0325,0 0.12641,0.15996 0.39755,0.60059 l 0.2938,0.51843 -0.34563,-0.41476 c -0.20739,-0.22465 -0.36293,-0.4839 -0.36293,-0.58756 0,-0.0718 0,-0.1167 0.0172,-0.1167 z m 1.07531,1.72748 c 0.0465,0 0.11645,0.0932 0.18634,0.27295 0.0402,0.10711 0.0388,0.17273 -0.012,0.17273 -0.0148,0 -0.0338,-0.006 -0.0571,-0.0172 -0.10369,-0.0519 -0.17282,-0.1728 -0.17282,-0.27654 0,-0.10216 0.0216,-0.15194 0.0556,-0.15194 z m 0.34564,0.69131 c 0.0465,0 0.11645,0.0932 0.18634,0.27292 0.0402,0.10712 0.0388,0.17273 -0.012,0.17273 -0.0148,0 -0.0338,-0.006 -0.0571,-0.0172 -0.1037,-0.0519 -0.17282,-0.17282 -0.17282,-0.27649 0,-0.10218 0.0216,-0.15195 0.0556,-0.15195 z m 0.36153,0.71805 c 0.0103,0 0.0213,0.007 0.0322,0.0215 0.0519,0.0518 0.0691,0.20737 0.0173,0.32837 -0.0199,0.053 -0.0398,0.0781 -0.0567,0.0781 -0.0273,0 -0.047,-0.0646 -0.047,-0.18183 -0.0136,-0.14996 0.0158,-0.24612 0.0542,-0.24612 z m 117.81752,130.27756 c 0.18245,0 0.45985,0.12456 0.69955,0.34336 0.20737,0.19015 0.31107,0.39754 0.25922,0.4667 -0.0248,0.0186 -0.0474,0.0283 -0.0661,0.0283 -0.0335,0 -0.0548,-0.031 -0.0548,-0.0975 0,-0.1037 -0.22467,-0.22464 -0.51846,-0.29384 -0.27652,-0.0518 -0.51846,-0.1728 -0.51846,-0.27647 0,-0.11663 0.079,-0.17059 0.19913,-0.17059 z m 3.6029,6.13286 0.32837,0.6913 c 0.19008,0.3802 0.39746,0.8986 0.44931,1.15783 0.0691,0.29383 0.0519,0.48397 -0.0519,0.48397 -0.22464,0 -0.51846,-0.76046 -0.6394,-1.6418 z M 249.41267,378.5104 c -0.66803,0 -1.3556,0.0518 -1.88533,0.15778 -3.33541,0.69126 -4.37234,1.10602 -6.34246,2.54044 -1.86646,1.36526 -2.09113,1.57266 -2.93793,2.8515 -0.74314,1.10605 -0.82953,1.34798 -0.88138,2.38492 -0.0691,0.98504 -0.0173,1.19246 0.29379,1.48626 0.32837,0.31107 0.36292,0.4493 0.24194,1.36527 -0.0691,0.55298 -0.1037,1.84915 -0.0864,2.88608 0.0346,1.86645 0.22467,2.54045 1.10605,3.78475 0.17282,0.24192 0.15555,0.4666 -0.1037,1.1233 -0.65671,1.67636 -0.51843,2.43677 0.55304,2.83423 0.2074,0.0864 0.46661,0.34564 0.55301,0.58761 0.0864,0.24196 0.36292,0.51844 0.58758,0.60486 0.32837,0.121 0.44934,0.32834 0.53577,0.81226 0.0518,0.36291 0.17279,0.98507 0.27649,1.38254 0.0864,0.3975 0.15555,1.08874 0.15555,1.55538 0,1.60486 0.73437,2.43952 2.09352,2.43952 0.52888,0 1.15239,-0.1264 1.86403,-0.38297 1.00047,-0.34953 2.08499,-0.54779 2.8959,-0.54779 0.35172,0 0.65197,0.0373 0.87155,0.11573 0.86411,0.29379 1.83188,2.022 2.1084,3.75018 0.13825,0.88141 0.12097,0.9332 -0.38019,1.34795 -0.27652,0.24198 -0.88138,0.6222 -1.31341,0.84684 -1.78006,0.9332 -3.30087,2.1084 -4.4242,3.45642 -2.43677,2.92066 -3.12802,4.30316 -3.97485,7.8114 -0.24194,1.01964 -0.50116,2.02198 -0.55301,2.1948 -0.0519,0.17282 -0.41476,0.65671 -0.81225,1.05424 -1.48624,1.52077 -1.52082,1.58992 -1.39984,2.29845 0.0864,0.53577 0.0173,0.77771 -0.41477,1.41718 -0.29379,0.432 -0.53574,0.86407 -0.53574,0.95047 0,0.1037 -0.38018,0.79495 -0.8641,1.55535 -0.46658,0.74315 -0.88138,1.43439 -0.91592,1.52085 -0.008,0.0226 -0.0448,0.0327 -0.10441,0.0327 -0.35128,0 -1.47654,-0.3544 -1.83117,-0.62034 -0.0864,-0.0691 -0.67398,-0.27654 -1.29614,-0.46663 -0.62217,-0.1901 -1.62452,-0.55301 -2.24665,-0.81227 -0.62216,-0.24193 -1.46896,-0.57024 -1.90103,-0.7258 -0.43204,-0.13826 -1.12332,-0.53575 -1.55536,-0.8814 -1.69363,-1.38256 -6.73996,-6.7745 -6.73996,-7.2238 0,-0.1383 0.2074,-1.17518 0.44934,-2.3331 0.34563,-1.62452 0.41477,-2.35032 0.32836,-3.19712 -0.13827,-1.2789 0.24194,-2.66144 0.88138,-3.23176 0.22465,-0.19009 0.41475,-0.53576 0.41475,-0.7431 0,-0.46664 -0.60486,-0.93326 -1.20972,-0.93326 -0.63944,0 -1.93558,0.50119 -2.1948,0.82956 -0.62216,0.76038 -0.77769,1.10602 -0.88138,1.86643 l -0.12098,0.81228 -0.69127,-0.67401 c -0.63944,-0.62216 -1.78005,-2.64416 -2.07384,-3.69832 -0.15553,-0.55302 -1.39982,-2.76515 -2.07383,-3.6811 -0.34565,-0.4493 -0.74312,-0.77765 -1.10604,-0.88135 -0.17854,-0.0535 -0.30789,-0.0845 -0.41559,-0.0845 -0.20503,0 -0.33154,0.11238 -0.56947,0.39565 -0.22467,0.25921 -0.41478,0.67398 -0.41478,0.91592 0,0.1958 -0.003,0.30301 -0.057,0.30301 -0.0696,0 -0.22383,-0.17972 -0.56511,-0.57953 -0.47738,-0.54968 -0.63993,-0.68768 -1.0654,-0.68768 -0.0828,0 -0.17559,0.005 -0.28259,0.0137 -0.65671,0.0519 -0.72583,0.10373 -0.8641,0.65674 -0.13825,0.55302 -0.0518,0.79498 0.82954,2.48858 0.53575,1.03694 0.9505,1.90104 0.91594,1.95288 -0.002,0.001 -0.003,0.002 -0.005,0.002 -0.0676,0 -0.42098,-0.55869 -0.807,-1.28036 -0.89805,-1.69251 -1.14027,-1.95252 -1.74428,-1.95286 h -0.002 c -1.2778,0.001 -0.91469,2.26444 0.72673,4.54514 0.27651,0.38022 0.50118,0.76041 0.50118,0.82954 0,0.0691 0.22465,0.48388 0.51844,0.89867 0.76041,1.12333 0.93323,1.67633 0.63944,1.9874 -0.0779,0.0741 -0.17323,0.11253 -0.29038,0.11253 -0.42881,0 -1.14938,-0.5141 -2.37103,-1.6679 -0.98823,-0.92647 -1.28665,-1.1493 -1.67183,-1.1493 -0.0459,0 -0.0931,0.003 -0.14278,0.009 -0.6567,0.0519 -0.9505,0.63944 -0.7604,1.41715 0.1901,0.7604 2.14296,2.54047 3.50824,3.21445 0.91592,0.44932 1.29614,0.74307 1.53809,1.19242 0.19009,0.34563 0.44932,0.74315 0.58758,0.88137 0.43204,0.44933 1.22702,1.55539 1.12332,1.55539 -0.0519,0 0.0519,0.17282 0.25923,0.38018 0.19011,0.2074 0.34563,0.43206 0.34563,0.50122 0,0.0691 0.17282,0.32831 0.39749,0.58754 0.72618,0.86525 1.07941,1.26085 1.1461,1.26085 0.008,0 0.0118,-0.006 0.0118,-0.0165 0,-0.002 0.001,-0.003 0.003,-0.003 0.0948,0 2.25597,2.21377 2.81372,2.90677 0.58758,0.7431 2.26393,3.21444 2.81697,4.1822 0.25921,0.46663 1.10603,1.57268 1.88373,2.47133 0.76039,0.89865 1.52078,1.81457 1.67633,2.03924 0.13825,0.2247 0.91595,1.07151 1.71091,1.88373 0.54881,0.57266 1.03172,1.12064 1.28386,1.45056 h 0.002 l 2.15158,2.19664 h 0.002 c 0.43237,0.34594 1.3303,1.1403 1.9866,1.76207 0.67398,0.62213 1.88373,1.58993 2.73053,2.14295 0.82953,0.55301 1.50354,1.0542 1.50354,1.12332 0,0.0691 0.29379,0.29379 0.67398,0.50119 0.42157,0.23675 0.78331,0.3674 1.15939,0.3674 0.74938,0 1.55567,-0.51871 3.00556,-1.74997 0.58758,-0.50116 1.34799,-1.12332 1.67636,-1.36526 0.31107,-0.25925 0.79495,-0.7604 1.05417,-1.1406 0.25925,-0.36294 1.50354,-1.64178 2.78241,-2.83423 1.27887,-1.17517 3.12802,-3.05893 4.13037,-4.16494 0.98508,-1.10605 1.93558,-2.07386 2.1084,-2.12568 0.31106,-0.10373 1.64179,-1.72821 1.83188,-2.24667 0.0643,-0.1571 0.12855,-0.23748 0.19893,-0.23748 0.0999,0 0.21212,0.16207 0.35408,0.4967 0.13827,0.2938 0.58758,1.00238 1.01965,1.5727 0.41476,0.5703 1.19245,1.91826 1.69363,2.97243 0.51847,1.05423 1.00235,1.95291 1.07148,2.00473 0.22467,0.17282 0.74314,1.17517 0.74314,1.43439 0,0.13827 0.29378,0.82953 0.65667,1.53812 0.36293,0.70853 0.79498,1.58993 0.95053,1.97013 0.17282,0.3802 0.50116,1.00234 0.72583,1.38256 0.24194,0.38019 0.67397,1.15787 0.96777,1.72818 0.2938,0.57028 0.795,1.38254 1.10605,1.8146 0.72585,0.98508 1.01965,2.0047 1.46899,5.02903 0.44931,2.93793 0.41476,3.45643 -0.17282,3.62921 -0.24197,0.0692 -1.17517,0.36292 -2.07385,0.63942 -0.89865,0.2938 -2.14294,0.5876 -2.76511,0.65672 -1.20974,0.121 -4.35504,1.10605 -6.30789,1.95285 -0.65671,0.27653 -1.55539,0.62216 -1.98743,0.74313 -0.47354,0.1408 -0.66273,0.2342 -0.71499,0.3925 h -0.002 q -10.05974,3.7399 -14.08357,6.55666 -4.52084,2.93924 -4.32085,7.27894 0.14252,3.53582 2.87195,7.99587 7.65916,11.84427 16.86038,23.01793 1.13767,1.6161 3.58163,7.3714 h -0.003 c -0.0513,0.0665 -0.0923,0.10365 -0.13279,0.10365 -0.085,0 -0.16811,-0.16315 -0.34113,-0.56012 -0.38019,-0.8468 -2.07382,-2.59228 -2.50586,-2.59228 -0.10369,0 -0.17282,-0.0865 -0.17282,-0.17279 0,-0.1037 -0.19012,-0.17279 -0.43207,-0.17279 -0.32834,0 -0.43203,0.0864 -0.43203,0.39743 0,0.3456 0.51846,0.9851 0.79495,0.9851 0.15555,0 0.7604,0.70853 0.7604,0.8814 0,0.0691 0.1037,0.2419 0.22468,0.3629 0.34564,0.34564 1.27886,2.07385 1.38256,2.5577 0.15552,0.674 -0.39749,1.6245 -0.96777,1.69364 -0.25925,0.0346 -0.43207,0.13826 -0.38022,0.22466 0.0691,0.0864 -0.15555,0.1555 -0.50116,0.1555 -0.32837,0 -0.62216,-0.0518 -0.65674,-0.1382 -0.0864,-0.19014 -2.14294,-0.8468 -3.40454,-1.0715 -0.43503,-0.0777 -0.70943,-0.1205 -0.90169,-0.1205 -0.23542,0 -0.34767,0.0642 -0.48084,0.2069 -0.14417,0.1442 -0.1844,0.2438 -0.12072,0.2438 0.005,0 0.0107,-6e-4 0.017,-0.002 0.0726,-0.0104 0.13612,-0.0152 0.1896,-0.0152 0.2141,0 0.26668,0.0775 0.0869,0.1881 -0.24195,0.1555 -0.25925,0.1555 1.97012,0.79495 0.57031,0.1728 1.36526,0.50115 1.78003,0.74311 0.44064,0.25374 0.73686,0.35264 1.08792,0.35264 0.1033,0 0.21135,-0.009 0.32922,-0.0243 l 0.67399,-0.0864 -0.25922,0.44934 c -0.13825,0.25922 -0.48392,0.81226 -0.76041,1.24426 -0.3111,0.5012 -0.50119,1.01966 -0.50119,1.469 -0.0173,0.3802 -0.17282,1.0023 -0.34561,1.39984 -0.34567,0.7431 -1.76279,2.09113 -2.38492,2.24666 -0.22467,0.0691 -0.39749,0.17283 -0.39749,0.25926 0,0.0863 -0.12097,0.15554 -0.25922,0.15554 -0.13827,0 -0.25924,0.0691 -0.25924,0.17277 0,0.0864 -0.15552,0.17283 -0.34565,0.17283 -0.19009,0 -0.34564,0.0691 -0.34564,0.1728 0,0.0864 -0.15551,0.17286 -0.34561,0.17286 -0.19012,0 -0.34564,0.0691 -0.34564,0.15554 0,0.17283 -1.78006,0.79496 -2.76514,0.96775 -1.17517,0.2074 -1.83185,1.07145 -1.65906,2.19485 0.12101,0.7258 0.76041,1.6936 1.14063,1.6936 0.0864,0 0.17282,0.0691 0.17282,0.1382 0,0.33816 3.11484,0.61337 5.28499,0.61337 1.04657,0 1.87344,-0.064 2.02525,-0.21582 0.1037,-0.1037 0.51847,-0.19015 0.93323,-0.19015 0.41476,0 0.74313,-0.0863 0.74313,-0.17277 0,-0.1037 0.31107,-0.17283 0.67399,-0.17283 0.41476,0 0.70855,-0.0864 0.7604,-0.24196 0.0519,-0.13824 0.65671,-0.36294 1.34799,-0.53574 0.69129,-0.15555 1.72818,-0.5012 2.29849,-0.7777 0.58759,-0.2765 1.33072,-0.5703 1.65906,-0.6221 0.32836,-0.0692 0.69129,-0.17286 0.77771,-0.24195 0.10367,-0.0692 0.60485,-0.22465 1.12332,-0.34565 0.51847,-0.12097 1.22699,-0.34564 1.55536,-0.5185 0.32837,-0.1555 0.95053,-0.39745 1.38257,-0.5184 0.43204,-0.13827 0.81223,-0.29384 0.86408,-0.34566 0.10369,-0.13824 1.9183,-0.81224 2.93792,-1.12334 0.43207,-0.121 1.1579,-0.3802 1.6072,-0.58754 0.46666,-0.19012 0.95054,-0.36296 1.0888,-0.36296 0.13823,0 0.24193,-0.0864 0.24193,-0.1728 0,-0.1037 0.15555,-0.17286 0.36295,-0.17286 0.19009,0 0.29379,-0.0691 0.24192,-0.17279 -0.0518,-0.0865 0.0173,-0.17279 0.15554,-0.17279 0.15556,0 0.27652,-0.0864 0.27652,-0.17286 0,-0.1037 0.12097,-0.17284 0.25924,-0.17284 0.13822,0 0.25922,-0.0864 0.25922,-0.17279 0,-0.1037 0.0864,-0.17277 0.19008,-0.17277 0.38023,0 1.36528,-1.2616 1.36528,-1.76284 0,-0.15552 -0.12098,-0.39746 -0.25922,-0.53571 -0.63943,-0.65675 -1.98742,-2.59228 -2.66144,-3.8366 -0.22564,-0.4137 -0.47686,-0.85805 -0.69244,-1.22181 h 0.003 l -2.90647,-3.36059 h 0.003 c -0.552,-0.0173 -0.64652,-0.14695 -1.31449,-1.10335 -0.43203,-0.60484 -0.82953,-1.27885 -0.89865,-1.4689 -0.0519,-0.2074 -0.17282,-0.36293 -0.25924,-0.36293 -0.0864,0 -0.2074,-0.15557 -0.25922,-0.34571 -0.0519,-0.19006 -0.2074,-0.44928 -0.31106,-0.55296 -0.36295,-0.38023 -1.27888,-1.91835 -1.57267,-2.6269 -0.15553,-0.3802 -0.55301,-1.08875 -0.88138,-1.5899 -0.32837,-0.5012 -0.69128,-1.0888 -0.77768,-1.29615 -0.32837,-0.72583 -0.74313,-1.45169 -0.8641,-1.53809 -0.15555,-0.1037 -2.78241,-5.2019 -3.09347,-5.97956 -0.1037,-0.2765 -0.34562,-0.76043 -0.53574,-1.07147 -0.36292,-0.58758 -1.03693,-2.93793 -1.03693,-3.57739 0,-0.44931 -0.6394,-2.93794 -0.86407,-3.33539 -0.0864,-0.15555 -0.27652,-0.60485 -0.43207,-0.98507 -0.60486,-1.46898 -1.00235,-2.1948 -2.31577,-4.23408 -0.67398,-1.03692 -0.69125,-1.0542 -1.33072,-1.8146 -0.24194,-0.2938 -0.67398,-0.81225 -0.9505,-1.1579 l -0.42238,-0.52093 h 0.002 q 1.4897,0.4162 2.62717,0.62823 2.90033,0.57895 6.47357,0.57895 0.12271,0 0.24625,-6.7e-4 4.62994,-0.0215 10.57376,-0.65308 h -0.003 c 0.65442,-0.0106 1.1195,-0.0611 1.23142,-0.13516 h -0.003 q 1.72055,-0.19641 3.54639,-0.44171 0.15458,-0.0215 0.32098,-0.0454 h 0.003 q 1.00751,2.12363 3.30678,5.26065 1.73964,2.56885 14.95427,17.94243 0.0601,0.0474 0.15957,0.1678 h -0.003 c 0.23438,0.2977 0.38019,0.4983 0.38019,0.53223 0,0.0521 0.1004,0.1857 0.25202,0.34799 h -0.003 q 1.02445,1.54654 3.24438,5.31012 0.79022,1.17731 1.60291,2.02536 0.7557,0.8088 1.71402,1.3785 0.45211,0.3496 2.9985,1.1545 0.6492,0.3039 1.60314,1.0426 8.32984,7.26903 19.09126,15.70965 4.81286,3.75165 9.28954,9.96385 v 0 c -0.3085,-0.11766 -0.5475,-0.17723 -0.76552,-0.17723 -0.26298,0 -0.49543,0.0867 -0.78248,0.26257 -1.0542,0.65666 -0.9332,1.74546 0.27652,2.50586 0.41478,0.2765 0.79498,0.6913 0.98508,1.1406 0.17282,0.3802 0.41477,0.6913 0.553,0.6913 0.27653,0 1.07148,0.8295 1.07148,1.1233 0,0.0864 0.0864,0.9332 0.17282,1.8492 0.17282,1.7973 0.57032,2.8515 1.2443,3.3181 0.16998,0.1159 0.40558,0.17303 0.64505,0.17303 0.29617,0 0.59823,-0.0875 0.78935,-0.25943 0.10603,-0.10605 0.19627,-0.1558 0.26347,-0.1558 0.11905,0 0.16573,0.15614 0.0995,0.4323 -0.12097,0.4666 0.24197,1.4862 0.67401,1.9183 0.43204,0.43206 0.50116,1.08874 0.29379,2.81695 -0.13827,1.12329 -0.32837,1.901 -0.62216,2.48859 -0.48389,0.91596 -0.9678,2.7478 -0.9678,3.62921 0,0.57031 0.34563,1.22705 0.86413,1.62451 0.13825,0.12097 0.70856,0.22467 1.24427,0.22467 0.95053,0 1.00235,-0.0173 2.16023,-1.07147 0.63945,-0.60486 1.3653,-1.24432 1.60722,-1.43446 0.65674,-0.5184 1.27888,-1.4344 1.90103,-2.76506 0.31107,-0.67404 0.62217,-1.22704 0.70855,-1.2616 0.0864,-0.0345 0.15553,-0.19014 0.15553,-0.34564 0,-0.1555 0.13827,-0.53577 0.31109,-0.81226 0.17283,-0.29374 0.44935,-1.01964 0.62218,-1.64174 0.19008,-0.6222 0.50115,-1.52086 0.72582,-1.9875 0.22464,-0.48386 0.48388,-1.3652 0.58758,-1.9874 0.12097,-0.6221 0.31107,-1.4689 0.4493,-1.901 0.121,-0.432 0.3111,-1.3653 0.3975,-2.0738 0.0864,-0.7086 0.3802,-1.9183 0.62217,-2.6787 0.25921,-0.76044 0.553,-1.6245 0.6394,-1.901 1.00235,-3.02435 1.48627,-6.2215 1.1752,-8.0015 l -0.19012,-1.1752 -1.79731,-0.0346 c -1.05419,-0.0345 -2.09112,-0.1555 -2.52316,-0.29377 -0.10461,-0.0392 -0.25543,-0.0785 -0.43858,-0.11633 h 0.003 q -0.0586,-0.004 -0.12942,-0.0126 l -0.41134,-0.0707 -0.2951,-0.012 q -0.0958,0.0154 -0.2961,0.0154 -0.0272,0 -0.0564,-3e-4 l -0.13492,0.0179 q -0.0209,-0.002 -0.049,-0.002 -0.11464,0 -0.34909,0.0294 l -0.61493,0.01 -0.15094,0.0129 q -0.36835,-0.0138 -0.43121,-0.0289 l -0.0953,-0.0173 -0.15217,-0.0475 q -0.25031,-0.0468 -0.27908,-0.0625 -0.20011,-0.0652 -0.24231,-0.1326 l -3.00412,-0.62474 q -0.038,-0.0395 -0.0646,-0.0808 h 0.003 c -0.0159,-1.8e-4 -0.0337,-6.5e-4 -0.0534,-6.5e-4 -0.14736,0 -5.12872,-4.93874 -8.41536,-8.28743 h -0.003 q -6.96082,-10.10527 -10.69434,-13.60447 -3.60962,-3.5277 -8.40769,-5.9359 h -0.003 c -0.15983,-0.11405 -0.37156,-0.24784 -0.55937,-0.34174 -0.1391,-0.0696 -0.30588,-0.21516 -0.48019,-0.41206 h -0.003 q -3.34909,-7.768 -10.06446,-19.25564 h -0.003 c -0.12303,-0.35238 -0.33687,-0.8287 -0.64794,-1.4508 -0.50119,-0.96781 -1.1579,-2.14298 -1.46899,-2.59229 -0.31107,-0.44934 -0.55301,-0.88137 -0.55301,-0.9678 0,-0.1037 -0.0519,-0.20737 -0.12096,-0.24195 -0.0864,-0.0346 -0.41478,-0.48392 -0.74315,-1.00235 -0.20843,-0.32751 -0.34503,-0.54425 -0.43243,-0.75763 h -0.003 q 0.49619,-2.31619 0.74759,-3.63449 0.49991,-2.59762 0.70735,-4.43665 0.0504,-0.41537 0.0873,-0.81765 h -0.003 c 0.007,-0.0506 0.0131,-0.10138 0.0195,-0.15245 0.0138,-0.10634 0.0233,-0.23048 0.0291,-0.3697 h -0.003 q 0.17724,-2.4836 -0.181,-4.4473 -0.19336,-1.10694 -0.60608,-2.22507 h -0.003 c -0.0623,-0.23328 -0.12492,-0.4299 -0.18664,-0.57925 -0.0296,-0.069 -0.0676,-0.12955 -0.11283,-0.18088 h -0.003 q -0.37726,-0.86884 -0.88605,-1.74435 -0.23177,-0.67988 -5.44775,-7.89579 -1.07565,-1.62466 -1.89697,-3.25146 -1.55173,-2.99677 -2.79297,-7.83347 -0.77078,-3.1467 -1.28195,-5.66693 h -0.003 c -0.20445,-1.147 -0.35188,-2.0856 -0.36436,-2.32248 0,-0.32834 -0.12097,-1.07147 -0.25922,-1.64178 -0.0617,-0.24311 -0.11856,-0.48844 -0.17077,-0.73889 h -0.003 q -0.0933,-0.74353 -0.14434,-1.38535 -0.41184,-3.038 0.0533,-19.04742 h -0.003 l 0.35382,-0.0505 c 0.32838,-0.0518 1.57266,-0.2074 2.76511,-0.34564 1.19247,-0.15555 2.40222,-0.36292 2.67871,-0.48392 0.29379,-0.12094 1.38256,-0.31104 2.41946,-0.43204 3.43912,-0.39749 5.1846,-0.82954 6.8782,-1.72814 0.53156,-0.28355 0.78055,-0.3894 1.32636,-0.3894 0.25274,0 0.56914,0.0227 1.00671,0.061 2.60959,0.19014 3.45639,0.39752 5.54753,1.29618 1.93557,0.82952 2.59227,1.01962 4.6661,1.39984 0.51846,0.0864 1.00235,0.20739 1.07147,0.24197 0.0691,0.0518 1.43439,0.17279 3.04163,0.25922 3.16256,0.19009 4.476,0.36288 5.92767,0.79495 1.72821,0.50118 3.36999,1.12332 3.49096,1.31341 0.0519,0.12097 0.67402,0.48392 1.36527,0.81229 1.1752,0.58756 1.26157,0.67398 1.5208,1.48621 0.5876,1.78007 2.16026,3.64647 3.73292,4.42419 0.65671,0.32834 1.27888,0.81223 1.72818,1.33072 0.91025,1.11252 1.393,1.4523 2.00962,1.4523 0.0156,0 0.0312,-2.1e-4 0.047,-6.4e-4 0.69126,-0.0173 0.96778,-0.432 0.96778,-1.45166 0,-0.93326 -0.50119,-1.901 -1.31346,-2.54044 -0.25808,-0.18927 -0.39626,-0.36148 -0.3122,-0.36297 h 0.003 c 0.39908,0.004 1.4343,0.95315 2.59006,2.36767 0.92343,1.14002 1.41817,1.61826 1.84147,1.61826 0.21837,0 0.41775,-0.12729 0.64712,-0.35669 0.41476,-0.41477 0.43206,-0.74313 0.0864,-1.10602 -0.15554,-0.1383 -0.32837,-0.60485 -0.41476,-1.01968 -0.1037,-0.53571 -0.32838,-0.98505 -0.77768,-1.43439 -0.65192,-0.66336 -0.9481,-1.09208 -0.8234,-1.09578 h 0.003 c 0.0663,0.002 0.23901,0.11138 0.52624,0.35265 0.39747,0.32837 0.96778,0.76045 1.26157,0.98508 0.29379,0.20739 0.81226,0.62219 1.1406,0.89865 0.40457,0.3439 0.90383,0.52798 1.28305,0.52798 0.26873,0 0.47718,-0.0925 0.54885,-0.28601 0.0394,-0.10595 0.0681,-0.21512 0.0869,-0.32355 h -0.003 q 0.016,-0.001 0.0317,-0.003 0.11128,-0.004 0.1257,-0.0892 0.009,-0.0934 0.008,-0.21094 -0.03,-0.29932 -0.0259,-0.565 -0.0436,-0.29056 -0.1875,-0.4971 l -0.3696,-0.55368 -0.53735,-0.46194 -0.60648,-0.63123 q -0.0803,-0.082 -0.16817,-0.15644 l -0.33772,-0.28061 q -0.33722,-0.2312 -0.58958,-0.44182 h 0.003 q 0.3062,0.0995 0.6551,0.18456 h -0.003 c 0.098,0.075 0.19638,0.15701 0.29419,0.24536 0.37717,0.33521 0.68444,0.49898 0.97194,0.49898 0.18672,0 0.36513,-0.0691 0.54888,-0.20522 0.38022,-0.29376 0.38022,-0.34564 0.13824,-0.81225 -0.0625,-0.12503 -0.11444,-0.25009 -0.14938,-0.35596 h -0.003 q 0.0273,-0.36233 2.5e-4,-0.48425 -0.01,-0.0864 -0.0401,-0.16489 l -0.16708,-0.33316 q -0.24902,-0.58942 -0.26599,-0.71551 -0.12505,-0.17048 -0.4039,-0.47883 l -0.61875,-0.84466 -0.15444,-0.18521 q -0.0586,-0.0666 -0.2818,-0.22504 l -0.86682,-0.6188 h -0.003 c -0.0523,-0.42752 -0.4476,-1.03752 -0.76085,-1.03752 -0.15553,0 -0.88136,-0.19008 -1.57265,-0.432 -0.69128,-0.24197 -1.41708,-0.43206 -1.60721,-0.43206 -0.19009,0 -0.48391,-0.10367 -0.62216,-0.22467 -0.32632,-0.27973 -2.02225,-0.85294 -2.77536,-0.96557 h -0.003 q -0.008,-0.005 -0.0163,-0.01 -0.0647,-0.0409 -0.28232,-0.13455 l -0.13755,-0.0721 q -0.17034,-0.061 -0.44137,-0.0718 h -0.003 c -0.0205,-0.0192 -0.0393,-0.0391 -0.0561,-0.0596 -0.15551,-0.17288 -0.79495,-0.57031 -1.39981,-0.88141 -0.69316,-0.35315 -1.03991,-0.48852 -1.41476,-0.48852 -0.12048,0 -0.24387,0.014 -0.38257,0.0392 -0.084,0.0126 -0.17398,0.0191 -0.27073,0.0191 -0.69884,0 -1.75307,-0.33786 -3.51403,-1.14243 -0.39749,-0.1728 -0.81225,-0.32836 -0.91592,-0.32836 -0.1037,0 -0.84683,-0.32831 -1.67635,-0.70854 -2.60957,-1.24428 -2.8688,-1.34798 -3.73292,-1.53807 -0.46658,-0.10373 -1.00235,-0.27653 -1.19245,-0.38023 -0.19009,-0.1037 -0.7431,-0.27648 -1.22703,-0.39748 -0.48384,-0.12097 -1.41707,-0.43204 -2.09108,-0.69129 -0.65672,-0.25921 -1.64179,-0.58755 -2.16025,-0.72583 -0.51847,-0.13824 -1.03693,-0.32837 -1.12332,-0.39746 -0.34565,-0.29379 -2.93793,-1.01964 -3.97482,-1.12334 -0.57033,-0.0691 -1.39985,-0.1901 -1.83191,-0.2765 -0.27652,-0.0605 -0.58326,-0.0908 -0.93106,-0.0908 -0.34778,0 -0.73664,0.0302 -1.17731,0.0908 -0.3552,0.0478 -0.78333,0.0707 -1.26377,0.0707 -1.95068,0 -4.76431,-0.37647 -7.06613,-0.9866 -1.10605,-0.2938 -2.9552,-0.63945 -3.62921,-0.65671 -0.0835,-0.002 -0.17914,-0.004 -0.28506,-0.004 -1.40705,0 -4.6211,0.20331 -5.05506,0.33193 -0.1326,0.0398 -0.34546,0.0581 -0.60332,0.0581 -0.7503,0 -1.8816,-0.15494 -2.5247,-0.38644 -0.81204,-0.28764 -3.5949,-0.67456 -4.76562,-0.67456 -0.0252,0 -0.0497,1.8e-4 -0.0733,5.5e-4 -3.0589,0.0345 -3.99212,0.20743 -5.58207,1.0715 -1.227,0.65671 -3.30086,1.31337 -4.52785,1.45167 -0.32837,0.0346 -0.84683,0.12093 -1.14063,0.1728 -0.12649,0.0267 -0.24272,0.0405 -0.34179,0.0405 -0.15808,0 -0.27243,-0.0351 -0.31491,-0.10955 -0.0752,-0.12532 -0.47342,-0.18602 -0.92922,-0.18602 -0.48717,0 -1.0401,0.0693 -1.33473,0.20325 -0.15367,0.0668 -0.26083,0.10527 -0.34947,0.10527 -0.14064,0 -0.2346,-0.0967 -0.39363,-0.3299 -0.63944,-0.8814 -1.07147,-2.16026 -0.91597,-2.71327 0.1037,-0.34563 0.0519,-1.00233 -0.1728,-2.03923 -0.17283,-0.8814 -0.31107,-2.28123 -0.32838,-3.2663 0,-0.9505 -0.12097,-2.22938 -0.27649,-2.85154 -0.29379,-1.29614 -1.7109,-4.33774 -2.59228,-5.63388 -0.72586,-1.03693 -2.90338,-2.64413 -3.9057,-2.8688 -0.36295,-0.0692 -0.98508,-0.2074 -1.38257,-0.31108 -0.44803,-0.093 -1.0697,-0.1405 -1.70931,-0.1405 z"
                     inkscape:connector-curvature="0"
                     style="fill:#0055d4" />
                </g>
              </g>
            </g>
            <path
               sodipodi:nodetypes="ccccccssscccccccsssccc"
               inkscape:connector-curvature="0"
               id="path1077"
               d="m 521.57578,37.075119 -5.59126,7.393476 -1.57743,2.086222 -0.65829,0.870548 -3.35555,4.437319 2.94509,-0.0056 v 19.041513 c 0,5.401996 3.18996,8.283162 8.23181,8.283162 5.04187,0 8.23142,-2.881166 8.23142,-8.283162 V 51.826252 l 3.05275,-0.0056 -3.38493,-4.425588 c -0.007,-0.0022 -0.72318,-0.965423 -0.84777,-1.108249 l -1.40656,-1.839262 z m 0.48708,11.734225 0.0215,23.221007 c 0,0.720265 -0.15413,0.977976 -0.51428,0.977976 -0.36013,0 -0.5147,-0.309159 -0.5147,-0.977976 l -0.0215,-23.219154 0.56834,-0.0013 z"
               style="opacity:1;vector-effect:none;fill:#0055d4;fill-opacity:1;stroke:#0055d4;stroke-width:0.36462826;stroke-opacity:1" />
          </g>
        </g>
        <g
           id="g1127"
           transform="matrix(1.7061553,0,0,1.7061553,-88.730332,68.61686)">
          <path
             id="path998"
             style="font-style:normal;font-variant:normal;font-weight:900;font-stretch:normal;font-size:51.44757462px;line-height:1.25;font-family:'Mango Grotesque';-inkscape-font-specification:'Mango Grotesque Heavy';letter-spacing:7.30795574px;word-spacing:0px;fill:#0055d4;fill-opacity:1;stroke:none;stroke-width:2.17899299;stroke-opacity:1"
             d="M 74.709446,52.330928 H 66.99231 V 67.302173 H 65.963359 V 52.330928 h -7.717137 v 36.013303 h 7.717137 V 73.475882 h 1.028951 v 14.868349 h 7.717136 z"
             transform="scale(1.1947594,0.83698861)"
             inkscape:connector-curvature="0"
             inkscape:export-filename="/home/jfebles/g981.png"
             inkscape:export-xdpi="96"
             inkscape:export-ydpi="96" />
          <path
             id="path1000"
             style="font-style:normal;font-variant:normal;font-weight:900;font-stretch:normal;font-size:51.44757462px;line-height:1.25;font-family:'Mango Grotesque';-inkscape-font-specification:'Mango Grotesque Heavy';letter-spacing:7.30795574px;word-spacing:0px;fill:#0055d4;fill-opacity:1;stroke:none;stroke-width:2.17899299;stroke-opacity:1"
             d="m 99.509487,59.790827 c 0,-5.401996 -3.138302,-8.231612 -8.180164,-8.231612 -5.09331,0 -8.283059,2.881064 -8.283059,8.231612 v 21.042058 c 0,5.401995 3.189749,8.283059 8.231612,8.283059 5.041862,0 8.231611,-2.881064 8.231611,-8.283059 z M 91.792351,58.65898 v 23.305751 c 0,0.720266 -0.154342,0.977504 -0.514475,0.977504 -0.360133,0 -0.514476,-0.308685 -0.514476,-0.977504 V 58.65898 c 0,-0.668818 0.154343,-0.926056 0.514476,-0.926056 0.360133,0 0.514475,0.257238 0.514475,0.926056 z"
             transform="scale(1.1947594,0.83698861)"
             inkscape:connector-curvature="0"
             inkscape:export-filename="/home/jfebles/g981.png"
             inkscape:export-xdpi="96"
             inkscape:export-ydpi="96" />
          <path
             id="path1002"
             style="font-style:normal;font-variant:normal;font-weight:900;font-stretch:normal;font-size:51.44757462px;line-height:1.25;font-family:'Mango Grotesque';-inkscape-font-specification:'Mango Grotesque Heavy';letter-spacing:7.30795574px;word-spacing:0px;fill:#0055d4;fill-opacity:1;stroke:none;stroke-width:2.17899299;stroke-opacity:1"
             d="m 131.40929,52.330928 h -11.26701 l -0.2058,22.07101 -0.15434,3.704225 h -0.30868 l -0.15435,-3.704225 -0.20579,-22.07101 H 107.8463 v 36.013303 h 7.20267 l -1.59488,-23.048514 -0.15434,-3.755673 0.30868,-0.05145 0.46303,3.80712 2.00646,23.048514 h 7.09976 l 2.00646,-23.048514 0.46303,-3.80712 0.30868,0.05145 -0.15434,3.755673 -1.59488,23.048514 h 7.20266 z"
             transform="scale(1.1947594,0.83698861)"
             inkscape:connector-curvature="0"
             inkscape:export-filename="/home/jfebles/g981.png"
             inkscape:export-xdpi="96"
             inkscape:export-ydpi="96" />
          <path
             id="path1004"
             style="font-style:normal;font-variant:normal;font-weight:900;font-stretch:normal;font-size:51.44757462px;line-height:1.25;font-family:'Mango Grotesque';-inkscape-font-specification:'Mango Grotesque Heavy';letter-spacing:7.30795574px;word-spacing:0px;fill:#0055d4;fill-opacity:1;stroke:none;stroke-width:2.17899299;stroke-opacity:1"
             d="m 151.63052,52.330928 h -11.88439 v 36.013303 h 12.34742 v -6.173709 h -4.63028 v -8.69464 h 3.85857 v -6.173709 h -3.85857 v -8.797536 h 4.16725 z"
             transform="scale(1.1947594,0.83698861)"
             inkscape:connector-curvature="0"
             inkscape:export-filename="/home/jfebles/g981.png"
             inkscape:export-xdpi="96"
             inkscape:export-ydpi="96" />
          <g
             id="text841-3-2"
             style="font-style:normal;font-variant:normal;font-weight:normal;font-stretch:normal;font-size:76.88744354px;line-height:1.25;font-family:'Party Confetti';-inkscape-font-specification:'Party Confetti';letter-spacing:6.61915445px;word-spacing:0px;fill:#0055d4;fill-opacity:1;stroke:none;stroke-width:3.25646448;stroke-opacity:1"
             transform="scale(1.26492,0.79056383)"
             aria-label="GYM"
             inkscape:export-filename="/home/jfebles/g981.png"
             inkscape:export-xdpi="96"
             inkscape:export-ydpi="96">
            <path
               id="path1007"
               style="font-style:normal;font-variant:normal;font-weight:900;font-stretch:normal;font-family:'Mango Grotesque';-inkscape-font-specification:'Mango Grotesque Heavy';letter-spacing:2.48336101px;fill:#0055d4;stroke-width:3.25646448"
               d="m 67.520698,107.05881 v 10.91802 h 11.533116 v -9.22649 c 0,-8.45762 -5.074571,-12.301995 -12.301991,-12.301995 -7.150532,0 -12.301991,3.844375 -12.301991,12.301995 v 31.44696 c 0,8.45762 2.152849,12.37888 6.91987,12.37888 4.075035,0 6.535433,-2.92172 6.535433,-6.45855 h 0.30755 l 0.691987,5.30524 H 79.053814 V 123.0514 H 66.905598 v 9.22649 h 0.999537 v 9.61093 c 0,1.07643 -0.461325,1.46087 -0.999537,1.46087 -0.538212,0 -0.922649,-0.46133 -0.922649,-1.46087 v -34.83001 c 0,-0.99953 0.230662,-1.38397 0.768874,-1.38397 0.538212,0 0.768875,0.38444 0.768875,1.38397 z"
               inkscape:connector-curvature="0" />
            <path
               id="path1009"
               style="font-style:normal;font-variant:normal;font-weight:900;font-stretch:normal;font-family:'Mango Grotesque';-inkscape-font-specification:'Mango Grotesque Heavy';letter-spacing:2.48336101px;fill:#0055d4;stroke-width:3.25646448"
               d="M 105.75648,97.601656 H 94.223367 l -0.307549,22.220474 -0.230663,5.53589 H 93.223831 L 93.070056,119.82213 92.685619,97.601656 H 81.152502 l 6.535433,38.443724 v 15.37749 h 11.533116 v -15.37749 z"
               inkscape:connector-curvature="0" />
            <path
               id="path1011"
               style="font-style:normal;font-variant:normal;font-weight:900;font-stretch:normal;font-family:'Mango Grotesque';-inkscape-font-specification:'Mango Grotesque Heavy';letter-spacing:2.48336101px;fill:#0055d4;stroke-width:3.25646448"
               d="M 144.22315,97.601656 H 127.3848 l -0.30755,32.984714 -0.23067,5.5359 h -0.46132 l -0.23066,-5.5359 -0.30755,-32.984714 H 109.0087 v 53.821214 h 10.76424 l -2.38351,-34.44558 -0.23066,-5.61278 0.46132,-0.0769 0.69199,5.68967 2.99861,34.44558 h 10.61046 l 2.99862,-34.44558 0.69198,-5.68967 0.46133,0.0769 -0.23067,5.61278 -2.38351,34.44558 h 10.76425 z"
               inkscape:connector-curvature="0" />
          </g>
          <g
             id="g981"
             transform="translate(17.108224)"
             inkscape:export-filename="/home/jfebles/g981.png"
             inkscape:export-xdpi="96"
             inkscape:export-ydpi="96">
            <g
               aria-label="LIBRE"
               style="font-style:normal;font-variant:normal;font-weight:normal;font-stretch:normal;font-size:61.46747589px;line-height:1.25;font-family:'Party Confetti';-inkscape-font-specification:'Party Confetti';letter-spacing:5.29166651px;word-spacing:0px;fill:#0055d4;fill-opacity:1;stroke:none;stroke-width:2.60337257;stroke-opacity:1"
               id="text841"
               transform="matrix(1,0,0,0.64028712,6.7183521,-13.934088)">
              <path
                 d="m 46.481042,42.749308 v 43.027233 h 14.13752 V 78.400444 H 55.701164 V 42.749308 Z"
                 style="font-style:normal;font-variant:normal;font-weight:900;font-stretch:normal;font-family:'Mango Grotesque';-inkscape-font-specification:'Mango Grotesque Heavy';letter-spacing:5.29166651px;fill:#0055d4;stroke-width:2.60337257"
                 id="path859"
                 inkscape:connector-curvature="0" />
              <path
                 d="m 110.01492,51.339965 c 0,-6.761422 -4.05686,-9.834796 -9.8348,-9.834796 h -9.834797 v 43.027233 h 9.834797 c 5.77794,0 9.8348,-3.134841 9.8348,-9.896264 v -4.85593 c 0,-3.688049 -1.65963,-6.392618 -4.67153,-7.31463 v -0.24587 c 2.95044,-0.983479 4.67153,-3.565113 4.67153,-7.253162 z m -9.22013,-1.352284 v 7.560499 c 0,0.860545 -0.1844,1.167882 -0.61467,1.167882 h -0.614676 v -9.834796 h 0.614676 c 0.43027,0 0.61467,0.307337 0.61467,1.106415 z m 0,17.210893 v 8.789849 c 0,0.860545 -0.1844,1.167882 -0.61467,1.167882 H 99.565444 V 66.092159 h 0.614676 c 0.43027,0 0.61467,0.307338 0.61467,1.106415 z"
                 style="font-style:normal;font-variant:normal;font-weight:900;font-stretch:normal;font-family:'Mango Grotesque';-inkscape-font-specification:'Mango Grotesque Heavy';letter-spacing:5.29166651px;fill:#0055d4;stroke-width:2.60337257"
                 id="path863"
                 inkscape:connector-curvature="0" />
              <path
                 d="m 116.22854,41.505169 v 43.027233 h 9.22012 V 67.936184 h 0.61467 c 0.43027,0 0.61468,0.307337 0.61468,1.106414 v 9.527459 c 0,2.458699 0.12293,3.933918 0.49174,5.962345 h 9.22012 v -0.24587 c -0.36881,-1.782557 -0.49174,-3.257776 -0.49174,-5.716475 v -6.945825 c 0,-3.688048 -1.65962,-6.392617 -4.67153,-7.31463 v -0.245869 c 2.95044,-0.98348 4.67153,-3.565114 4.67153,-7.253163 v -4.794463 c 0,-6.82289 -4.05686,-10.510938 -9.8348,-10.510938 z m 9.22012,7.376097 h 0.61467 c 0.43027,0 0.61468,0.307337 0.61468,1.106415 v 9.404523 c 0,0.860545 -0.18441,1.167882 -0.61468,1.167882 h -0.61467 z"
                 style="font-style:normal;font-variant:normal;font-weight:900;font-stretch:normal;font-family:'Mango Grotesque';-inkscape-font-specification:'Mango Grotesque Heavy';letter-spacing:5.29166651px;fill:#0055d4;stroke-width:2.60337257"
                 id="path865"
                 inkscape:connector-curvature="0" />
              <path
                 d="m 156.61802,41.505169 h -14.19898 v 43.027233 h 14.75219 v -7.376097 h -5.53207 V 66.768302 h 4.61006 v -7.376098 h -4.61006 V 48.881266 h 4.97886 z"
                 style="font-style:normal;font-variant:normal;font-weight:900;font-stretch:normal;font-family:'Mango Grotesque';-inkscape-font-specification:'Mango Grotesque Heavy';letter-spacing:5.29166651px;fill:#0055d4;stroke-width:2.60337257"
                 id="path867"
                 inkscape:connector-curvature="0" />
            </g>
            <g
               id="layer1-3-7"
               transform="matrix(0.153057,0.0378274,-0.0378274,0.153057,56.573514,-55.553794)"
               style="fill:#0055d4">
              <g
                 id="g910-5"
                 style="fill:#0055d4;fill-opacity:1;stroke-linejoin:miter">
                <path
                   id="path908-3"
                   d="m 210.45497,409.9893 c 0.027,0 0.058,0.01 0.089,0.0283 0.10368,0.0518 0.17282,0.1901 0.17282,0.2765 0,0.0665 -0.0284,0.0974 -0.0761,0.0974 -0.0267,0 -0.0595,-0.01 -0.0967,-0.0283 -0.0864,-0.0519 -0.17282,-0.19012 -0.17282,-0.27655 0,-0.0665 0.0355,-0.0974 0.0838,-0.0974 z m 0.27908,0.63744 c 0.0325,0 0.12641,0.15996 0.39755,0.60059 l 0.2938,0.51843 -0.34563,-0.41476 c -0.20739,-0.22465 -0.36293,-0.4839 -0.36293,-0.58756 0,-0.0718 0,-0.1167 0.0172,-0.1167 z m 1.07531,1.72748 c 0.0465,0 0.11645,0.0932 0.18634,0.27295 0.0402,0.10711 0.0388,0.17273 -0.012,0.17273 -0.0148,0 -0.0338,-0.006 -0.0571,-0.0172 -0.10369,-0.0519 -0.17282,-0.1728 -0.17282,-0.27654 0,-0.10216 0.0216,-0.15194 0.0556,-0.15194 z m 0.34564,0.69131 c 0.0465,0 0.11645,0.0932 0.18634,0.27292 0.0402,0.10712 0.0388,0.17273 -0.012,0.17273 -0.0148,0 -0.0338,-0.006 -0.0571,-0.0172 -0.1037,-0.0519 -0.17282,-0.17282 -0.17282,-0.27649 0,-0.10218 0.0216,-0.15195 0.0556,-0.15195 z m 0.36153,0.71805 c 0.0103,0 0.0213,0.007 0.0322,0.0215 0.0519,0.0518 0.0691,0.20737 0.0173,0.32837 -0.0199,0.053 -0.0398,0.0781 -0.0567,0.0781 -0.0273,0 -0.047,-0.0646 -0.047,-0.18183 -0.0136,-0.14996 0.0158,-0.24612 0.0542,-0.24612 z m 117.81752,130.27756 c 0.18245,0 0.45985,0.12456 0.69955,0.34336 0.20737,0.19015 0.31107,0.39754 0.25922,0.4667 -0.0248,0.0186 -0.0474,0.0283 -0.0661,0.0283 -0.0335,0 -0.0548,-0.031 -0.0548,-0.0975 0,-0.1037 -0.22467,-0.22464 -0.51846,-0.29384 -0.27652,-0.0518 -0.51846,-0.1728 -0.51846,-0.27647 0,-0.11663 0.079,-0.17059 0.19913,-0.17059 z m 3.6029,6.13286 0.32837,0.6913 c 0.19008,0.3802 0.39746,0.8986 0.44931,1.15783 0.0691,0.29383 0.0519,0.48397 -0.0519,0.48397 -0.22464,0 -0.51846,-0.76046 -0.6394,-1.6418 z M 249.41267,378.5104 c -0.66803,0 -1.3556,0.0518 -1.88533,0.15778 -3.33541,0.69126 -4.37234,1.10602 -6.34246,2.54044 -1.86646,1.36526 -2.09113,1.57266 -2.93793,2.8515 -0.74314,1.10605 -0.82953,1.34798 -0.88138,2.38492 -0.0691,0.98504 -0.0173,1.19246 0.29379,1.48626 0.32837,0.31107 0.36292,0.4493 0.24194,1.36527 -0.0691,0.55298 -0.1037,1.84915 -0.0864,2.88608 0.0346,1.86645 0.22467,2.54045 1.10605,3.78475 0.17282,0.24192 0.15555,0.4666 -0.1037,1.1233 -0.65671,1.67636 -0.51843,2.43677 0.55304,2.83423 0.2074,0.0864 0.46661,0.34564 0.55301,0.58761 0.0864,0.24196 0.36292,0.51844 0.58758,0.60486 0.32837,0.121 0.44934,0.32834 0.53577,0.81226 0.0518,0.36291 0.17279,0.98507 0.27649,1.38254 0.0864,0.3975 0.15555,1.08874 0.15555,1.55538 0,1.60486 0.73437,2.43952 2.09352,2.43952 0.52888,0 1.15239,-0.1264 1.86403,-0.38297 1.00047,-0.34953 2.08499,-0.54779 2.8959,-0.54779 0.35172,0 0.65197,0.0373 0.87155,0.11573 0.86411,0.29379 1.83188,2.022 2.1084,3.75018 0.13825,0.88141 0.12097,0.9332 -0.38019,1.34795 -0.27652,0.24198 -0.88138,0.6222 -1.31341,0.84684 -1.78006,0.9332 -3.30087,2.1084 -4.4242,3.45642 -2.43677,2.92066 -3.12802,4.30316 -3.97485,7.8114 -0.24194,1.01964 -0.50116,2.02198 -0.55301,2.1948 -0.0519,0.17282 -0.41476,0.65671 -0.81225,1.05424 -1.48624,1.52077 -1.52082,1.58992 -1.39984,2.29845 0.0864,0.53577 0.0173,0.77771 -0.41477,1.41718 -0.29379,0.432 -0.53574,0.86407 -0.53574,0.95047 0,0.1037 -0.38018,0.79495 -0.8641,1.55535 -0.46658,0.74315 -0.88138,1.43439 -0.91592,1.52085 -0.008,0.0226 -0.0448,0.0327 -0.10441,0.0327 -0.35128,0 -1.47654,-0.3544 -1.83117,-0.62034 -0.0864,-0.0691 -0.67398,-0.27654 -1.29614,-0.46663 -0.62217,-0.1901 -1.62452,-0.55301 -2.24665,-0.81227 -0.62216,-0.24193 -1.46896,-0.57024 -1.90103,-0.7258 -0.43204,-0.13826 -1.12332,-0.53575 -1.55536,-0.8814 -1.69363,-1.38256 -6.73996,-6.7745 -6.73996,-7.2238 0,-0.1383 0.2074,-1.17518 0.44934,-2.3331 0.34563,-1.62452 0.41477,-2.35032 0.32836,-3.19712 -0.13827,-1.2789 0.24194,-2.66144 0.88138,-3.23176 0.22465,-0.19009 0.41475,-0.53576 0.41475,-0.7431 0,-0.46664 -0.60486,-0.93326 -1.20972,-0.93326 -0.63944,0 -1.93558,0.50119 -2.1948,0.82956 -0.62216,0.76038 -0.77769,1.10602 -0.88138,1.86643 l -0.12098,0.81228 -0.69127,-0.67401 c -0.63944,-0.62216 -1.78005,-2.64416 -2.07384,-3.69832 -0.15553,-0.55302 -1.39982,-2.76515 -2.07383,-3.6811 -0.34565,-0.4493 -0.74312,-0.77765 -1.10604,-0.88135 -0.17854,-0.0535 -0.30789,-0.0845 -0.41559,-0.0845 -0.20503,0 -0.33154,0.11238 -0.56947,0.39565 -0.22467,0.25921 -0.41478,0.67398 -0.41478,0.91592 0,0.1958 -0.003,0.30301 -0.057,0.30301 -0.0696,0 -0.22383,-0.17972 -0.56511,-0.57953 -0.47738,-0.54968 -0.63993,-0.68768 -1.0654,-0.68768 -0.0828,0 -0.17559,0.005 -0.28259,0.0137 -0.65671,0.0519 -0.72583,0.10373 -0.8641,0.65674 -0.13825,0.55302 -0.0518,0.79498 0.82954,2.48858 0.53575,1.03694 0.9505,1.90104 0.91594,1.95288 -0.002,0.001 -0.003,0.002 -0.005,0.002 -0.0676,0 -0.42098,-0.55869 -0.807,-1.28036 -0.89805,-1.69251 -1.14027,-1.95252 -1.74428,-1.95286 h -0.002 c -1.2778,0.001 -0.91469,2.26444 0.72673,4.54514 0.27651,0.38022 0.50118,0.76041 0.50118,0.82954 0,0.0691 0.22465,0.48388 0.51844,0.89867 0.76041,1.12333 0.93323,1.67633 0.63944,1.9874 -0.0779,0.0741 -0.17323,0.11253 -0.29038,0.11253 -0.42881,0 -1.14938,-0.5141 -2.37103,-1.6679 -0.98823,-0.92647 -1.28665,-1.1493 -1.67183,-1.1493 -0.0459,0 -0.0931,0.003 -0.14278,0.009 -0.6567,0.0519 -0.9505,0.63944 -0.7604,1.41715 0.1901,0.7604 2.14296,2.54047 3.50824,3.21445 0.91592,0.44932 1.29614,0.74307 1.53809,1.19242 0.19009,0.34563 0.44932,0.74315 0.58758,0.88137 0.43204,0.44933 1.22702,1.55539 1.12332,1.55539 -0.0519,0 0.0519,0.17282 0.25923,0.38018 0.19011,0.2074 0.34563,0.43206 0.34563,0.50122 0,0.0691 0.17282,0.32831 0.39749,0.58754 0.72618,0.86525 1.07941,1.26085 1.1461,1.26085 0.008,0 0.0118,-0.006 0.0118,-0.0165 0,-0.002 0.001,-0.003 0.003,-0.003 0.0948,0 2.25597,2.21377 2.81372,2.90677 0.58758,0.7431 2.26393,3.21444 2.81697,4.1822 0.25921,0.46663 1.10603,1.57268 1.88373,2.47133 0.76039,0.89865 1.52078,1.81457 1.67633,2.03924 0.13825,0.2247 0.91595,1.07151 1.71091,1.88373 0.54881,0.57266 1.03172,1.12064 1.28386,1.45056 h 0.002 l 2.15158,2.19664 h 0.002 c 0.43237,0.34594 1.3303,1.1403 1.9866,1.76207 0.67398,0.62213 1.88373,1.58993 2.73053,2.14295 0.82953,0.55301 1.50354,1.0542 1.50354,1.12332 0,0.0691 0.29379,0.29379 0.67398,0.50119 0.42157,0.23675 0.78331,0.3674 1.15939,0.3674 0.74938,0 1.55567,-0.51871 3.00556,-1.74997 0.58758,-0.50116 1.34799,-1.12332 1.67636,-1.36526 0.31107,-0.25925 0.79495,-0.7604 1.05417,-1.1406 0.25925,-0.36294 1.50354,-1.64178 2.78241,-2.83423 1.27887,-1.17517 3.12802,-3.05893 4.13037,-4.16494 0.98508,-1.10605 1.93558,-2.07386 2.1084,-2.12568 0.31106,-0.10373 1.64179,-1.72821 1.83188,-2.24667 0.0643,-0.1571 0.12855,-0.23748 0.19893,-0.23748 0.0999,0 0.21212,0.16207 0.35408,0.4967 0.13827,0.2938 0.58758,1.00238 1.01965,1.5727 0.41476,0.5703 1.19245,1.91826 1.69363,2.97243 0.51847,1.05423 1.00235,1.95291 1.07148,2.00473 0.22467,0.17282 0.74314,1.17517 0.74314,1.43439 0,0.13827 0.29378,0.82953 0.65667,1.53812 0.36293,0.70853 0.79498,1.58993 0.95053,1.97013 0.17282,0.3802 0.50116,1.00234 0.72583,1.38256 0.24194,0.38019 0.67397,1.15787 0.96777,1.72818 0.2938,0.57028 0.795,1.38254 1.10605,1.8146 0.72585,0.98508 1.01965,2.0047 1.46899,5.02903 0.44931,2.93793 0.41476,3.45643 -0.17282,3.62921 -0.24197,0.0692 -1.17517,0.36292 -2.07385,0.63942 -0.89865,0.2938 -2.14294,0.5876 -2.76511,0.65672 -1.20974,0.121 -4.35504,1.10605 -6.30789,1.95285 -0.65671,0.27653 -1.55539,0.62216 -1.98743,0.74313 -0.47354,0.1408 -0.66273,0.2342 -0.71499,0.3925 h -0.002 q -10.05974,3.7399 -14.08357,6.55666 -4.52084,2.93924 -4.32085,7.27894 0.14252,3.53582 2.87195,7.99587 7.65916,11.84427 16.86038,23.01793 1.13767,1.6161 3.58163,7.3714 h -0.003 c -0.0513,0.0665 -0.0923,0.10365 -0.13279,0.10365 -0.085,0 -0.16811,-0.16315 -0.34113,-0.56012 -0.38019,-0.8468 -2.07382,-2.59228 -2.50586,-2.59228 -0.10369,0 -0.17282,-0.0865 -0.17282,-0.17279 0,-0.1037 -0.19012,-0.17279 -0.43207,-0.17279 -0.32834,0 -0.43203,0.0864 -0.43203,0.39743 0,0.3456 0.51846,0.9851 0.79495,0.9851 0.15555,0 0.7604,0.70853 0.7604,0.8814 0,0.0691 0.1037,0.2419 0.22468,0.3629 0.34564,0.34564 1.27886,2.07385 1.38256,2.5577 0.15552,0.674 -0.39749,1.6245 -0.96777,1.69364 -0.25925,0.0346 -0.43207,0.13826 -0.38022,0.22466 0.0691,0.0864 -0.15555,0.1555 -0.50116,0.1555 -0.32837,0 -0.62216,-0.0518 -0.65674,-0.1382 -0.0864,-0.19014 -2.14294,-0.8468 -3.40454,-1.0715 -0.43503,-0.0777 -0.70943,-0.1205 -0.90169,-0.1205 -0.23542,0 -0.34767,0.0642 -0.48084,0.2069 -0.14417,0.1442 -0.1844,0.2438 -0.12072,0.2438 0.005,0 0.0107,-6e-4 0.017,-0.002 0.0726,-0.0104 0.13612,-0.0152 0.1896,-0.0152 0.2141,0 0.26668,0.0775 0.0869,0.1881 -0.24195,0.1555 -0.25925,0.1555 1.97012,0.79495 0.57031,0.1728 1.36526,0.50115 1.78003,0.74311 0.44064,0.25374 0.73686,0.35264 1.08792,0.35264 0.1033,0 0.21135,-0.009 0.32922,-0.0243 l 0.67399,-0.0864 -0.25922,0.44934 c -0.13825,0.25922 -0.48392,0.81226 -0.76041,1.24426 -0.3111,0.5012 -0.50119,1.01966 -0.50119,1.469 -0.0173,0.3802 -0.17282,1.0023 -0.34561,1.39984 -0.34567,0.7431 -1.76279,2.09113 -2.38492,2.24666 -0.22467,0.0691 -0.39749,0.17283 -0.39749,0.25926 0,0.0863 -0.12097,0.15554 -0.25922,0.15554 -0.13827,0 -0.25924,0.0691 -0.25924,0.17277 0,0.0864 -0.15552,0.17283 -0.34565,0.17283 -0.19009,0 -0.34564,0.0691 -0.34564,0.1728 0,0.0864 -0.15551,0.17286 -0.34561,0.17286 -0.19012,0 -0.34564,0.0691 -0.34564,0.15554 0,0.17283 -1.78006,0.79496 -2.76514,0.96775 -1.17517,0.2074 -1.83185,1.07145 -1.65906,2.19485 0.12101,0.7258 0.76041,1.6936 1.14063,1.6936 0.0864,0 0.17282,0.0691 0.17282,0.1382 0,0.33816 3.11484,0.61337 5.28499,0.61337 1.04657,0 1.87344,-0.064 2.02525,-0.21582 0.1037,-0.1037 0.51847,-0.19015 0.93323,-0.19015 0.41476,0 0.74313,-0.0863 0.74313,-0.17277 0,-0.1037 0.31107,-0.17283 0.67399,-0.17283 0.41476,0 0.70855,-0.0864 0.7604,-0.24196 0.0519,-0.13824 0.65671,-0.36294 1.34799,-0.53574 0.69129,-0.15555 1.72818,-0.5012 2.29849,-0.7777 0.58759,-0.2765 1.33072,-0.5703 1.65906,-0.6221 0.32836,-0.0692 0.69129,-0.17286 0.77771,-0.24195 0.10367,-0.0692 0.60485,-0.22465 1.12332,-0.34565 0.51847,-0.12097 1.22699,-0.34564 1.55536,-0.5185 0.32837,-0.1555 0.95053,-0.39745 1.38257,-0.5184 0.43204,-0.13827 0.81223,-0.29384 0.86408,-0.34566 0.10369,-0.13824 1.9183,-0.81224 2.93792,-1.12334 0.43207,-0.121 1.1579,-0.3802 1.6072,-0.58754 0.46666,-0.19012 0.95054,-0.36296 1.0888,-0.36296 0.13823,0 0.24193,-0.0864 0.24193,-0.1728 0,-0.1037 0.15555,-0.17286 0.36295,-0.17286 0.19009,0 0.29379,-0.0691 0.24192,-0.17279 -0.0518,-0.0865 0.0173,-0.17279 0.15554,-0.17279 0.15556,0 0.27652,-0.0864 0.27652,-0.17286 0,-0.1037 0.12097,-0.17284 0.25924,-0.17284 0.13822,0 0.25922,-0.0864 0.25922,-0.17279 0,-0.1037 0.0864,-0.17277 0.19008,-0.17277 0.38023,0 1.36528,-1.2616 1.36528,-1.76284 0,-0.15552 -0.12098,-0.39746 -0.25922,-0.53571 -0.63943,-0.65675 -1.98742,-2.59228 -2.66144,-3.8366 -0.22564,-0.4137 -0.47686,-0.85805 -0.69244,-1.22181 h 0.003 l -2.90647,-3.36059 h 0.003 c -0.552,-0.0173 -0.64652,-0.14695 -1.31449,-1.10335 -0.43203,-0.60484 -0.82953,-1.27885 -0.89865,-1.4689 -0.0519,-0.2074 -0.17282,-0.36293 -0.25924,-0.36293 -0.0864,0 -0.2074,-0.15557 -0.25922,-0.34571 -0.0519,-0.19006 -0.2074,-0.44928 -0.31106,-0.55296 -0.36295,-0.38023 -1.27888,-1.91835 -1.57267,-2.6269 -0.15553,-0.3802 -0.55301,-1.08875 -0.88138,-1.5899 -0.32837,-0.5012 -0.69128,-1.0888 -0.77768,-1.29615 -0.32837,-0.72583 -0.74313,-1.45169 -0.8641,-1.53809 -0.15555,-0.1037 -2.78241,-5.2019 -3.09347,-5.97956 -0.1037,-0.2765 -0.34562,-0.76043 -0.53574,-1.07147 -0.36292,-0.58758 -1.03693,-2.93793 -1.03693,-3.57739 0,-0.44931 -0.6394,-2.93794 -0.86407,-3.33539 -0.0864,-0.15555 -0.27652,-0.60485 -0.43207,-0.98507 -0.60486,-1.46898 -1.00235,-2.1948 -2.31577,-4.23408 -0.67398,-1.03692 -0.69125,-1.0542 -1.33072,-1.8146 -0.24194,-0.2938 -0.67398,-0.81225 -0.9505,-1.1579 l -0.42238,-0.52093 h 0.002 q 1.4897,0.4162 2.62717,0.62823 2.90033,0.57895 6.47357,0.57895 0.12271,0 0.24625,-6.7e-4 4.62994,-0.0215 10.57376,-0.65308 h -0.003 c 0.65442,-0.0106 1.1195,-0.0611 1.23142,-0.13516 h -0.003 q 1.72055,-0.19641 3.54639,-0.44171 0.15458,-0.0215 0.32098,-0.0454 h 0.003 q 1.00751,2.12363 3.30678,5.26065 1.73964,2.56885 14.95427,17.94243 0.0601,0.0474 0.15957,0.1678 h -0.003 c 0.23438,0.2977 0.38019,0.4983 0.38019,0.53223 0,0.0521 0.1004,0.1857 0.25202,0.34799 h -0.003 q 1.02445,1.54654 3.24438,5.31012 0.79022,1.17731 1.60291,2.02536 0.7557,0.8088 1.71402,1.3785 0.45211,0.3496 2.9985,1.1545 0.6492,0.3039 1.60314,1.0426 8.32984,7.26903 19.09126,15.70965 4.81286,3.75165 9.28954,9.96385 v 0 c -0.3085,-0.11766 -0.5475,-0.17723 -0.76552,-0.17723 -0.26298,0 -0.49543,0.0867 -0.78248,0.26257 -1.0542,0.65666 -0.9332,1.74546 0.27652,2.50586 0.41478,0.2765 0.79498,0.6913 0.98508,1.1406 0.17282,0.3802 0.41477,0.6913 0.553,0.6913 0.27653,0 1.07148,0.8295 1.07148,1.1233 0,0.0864 0.0864,0.9332 0.17282,1.8492 0.17282,1.7973 0.57032,2.8515 1.2443,3.3181 0.16998,0.1159 0.40558,0.17303 0.64505,0.17303 0.29617,0 0.59823,-0.0875 0.78935,-0.25943 0.10603,-0.10605 0.19627,-0.1558 0.26347,-0.1558 0.11905,0 0.16573,0.15614 0.0995,0.4323 -0.12097,0.4666 0.24197,1.4862 0.67401,1.9183 0.43204,0.43206 0.50116,1.08874 0.29379,2.81695 -0.13827,1.12329 -0.32837,1.901 -0.62216,2.48859 -0.48389,0.91596 -0.9678,2.7478 -0.9678,3.62921 0,0.57031 0.34563,1.22705 0.86413,1.62451 0.13825,0.12097 0.70856,0.22467 1.24427,0.22467 0.95053,0 1.00235,-0.0173 2.16023,-1.07147 0.63945,-0.60486 1.3653,-1.24432 1.60722,-1.43446 0.65674,-0.5184 1.27888,-1.4344 1.90103,-2.76506 0.31107,-0.67404 0.62217,-1.22704 0.70855,-1.2616 0.0864,-0.0345 0.15553,-0.19014 0.15553,-0.34564 0,-0.1555 0.13827,-0.53577 0.31109,-0.81226 0.17283,-0.29374 0.44935,-1.01964 0.62218,-1.64174 0.19008,-0.6222 0.50115,-1.52086 0.72582,-1.9875 0.22464,-0.48386 0.48388,-1.3652 0.58758,-1.9874 0.12097,-0.6221 0.31107,-1.4689 0.4493,-1.901 0.121,-0.432 0.3111,-1.3653 0.3975,-2.0738 0.0864,-0.7086 0.3802,-1.9183 0.62217,-2.6787 0.25921,-0.76044 0.553,-1.6245 0.6394,-1.901 1.00235,-3.02435 1.48627,-6.2215 1.1752,-8.0015 l -0.19012,-1.1752 -1.79731,-0.0346 c -1.05419,-0.0345 -2.09112,-0.1555 -2.52316,-0.29377 -0.10461,-0.0392 -0.25543,-0.0785 -0.43858,-0.11633 h 0.003 q -0.0586,-0.004 -0.12942,-0.0126 l -0.41134,-0.0707 -0.2951,-0.012 q -0.0958,0.0154 -0.2961,0.0154 -0.0272,0 -0.0564,-3e-4 l -0.13492,0.0179 q -0.0209,-0.002 -0.049,-0.002 -0.11464,0 -0.34909,0.0294 l -0.61493,0.01 -0.15094,0.0129 q -0.36835,-0.0138 -0.43121,-0.0289 l -0.0953,-0.0173 -0.15217,-0.0475 q -0.25031,-0.0468 -0.27908,-0.0625 -0.20011,-0.0652 -0.24231,-0.1326 l -3.00412,-0.62474 q -0.038,-0.0395 -0.0646,-0.0808 h 0.003 c -0.0159,-1.8e-4 -0.0337,-6.5e-4 -0.0534,-6.5e-4 -0.14736,0 -5.12872,-4.93874 -8.41536,-8.28743 h -0.003 q -6.96082,-10.10527 -10.69434,-13.60447 -3.60962,-3.5277 -8.40769,-5.9359 h -0.003 c -0.15983,-0.11405 -0.37156,-0.24784 -0.55937,-0.34174 -0.1391,-0.0696 -0.30588,-0.21516 -0.48019,-0.41206 h -0.003 q -3.34909,-7.768 -10.06446,-19.25564 h -0.003 c -0.12303,-0.35238 -0.33687,-0.8287 -0.64794,-1.4508 -0.50119,-0.96781 -1.1579,-2.14298 -1.46899,-2.59229 -0.31107,-0.44934 -0.55301,-0.88137 -0.55301,-0.9678 0,-0.1037 -0.0519,-0.20737 -0.12096,-0.24195 -0.0864,-0.0346 -0.41478,-0.48392 -0.74315,-1.00235 -0.20843,-0.32751 -0.34503,-0.54425 -0.43243,-0.75763 h -0.003 q 0.49619,-2.31619 0.74759,-3.63449 0.49991,-2.59762 0.70735,-4.43665 0.0504,-0.41537 0.0873,-0.81765 h -0.003 c 0.007,-0.0506 0.0131,-0.10138 0.0195,-0.15245 0.0138,-0.10634 0.0233,-0.23048 0.0291,-0.3697 h -0.003 q 0.17724,-2.4836 -0.181,-4.4473 -0.19336,-1.10694 -0.60608,-2.22507 h -0.003 c -0.0623,-0.23328 -0.12492,-0.4299 -0.18664,-0.57925 -0.0296,-0.069 -0.0676,-0.12955 -0.11283,-0.18088 h -0.003 q -0.37726,-0.86884 -0.88605,-1.74435 -0.23177,-0.67988 -5.44775,-7.89579 -1.07565,-1.62466 -1.89697,-3.25146 -1.55173,-2.99677 -2.79297,-7.83347 -0.77078,-3.1467 -1.28195,-5.66693 h -0.003 c -0.20445,-1.147 -0.35188,-2.0856 -0.36436,-2.32248 0,-0.32834 -0.12097,-1.07147 -0.25922,-1.64178 -0.0617,-0.24311 -0.11856,-0.48844 -0.17077,-0.73889 h -0.003 q -0.0933,-0.74353 -0.14434,-1.38535 -0.41184,-3.038 0.0533,-19.04742 h -0.003 l 0.35382,-0.0505 c 0.32838,-0.0518 1.57266,-0.2074 2.76511,-0.34564 1.19247,-0.15555 2.40222,-0.36292 2.67871,-0.48392 0.29379,-0.12094 1.38256,-0.31104 2.41946,-0.43204 3.43912,-0.39749 5.1846,-0.82954 6.8782,-1.72814 0.53156,-0.28355 0.78055,-0.3894 1.32636,-0.3894 0.25274,0 0.56914,0.0227 1.00671,0.061 2.60959,0.19014 3.45639,0.39752 5.54753,1.29618 1.93557,0.82952 2.59227,1.01962 4.6661,1.39984 0.51846,0.0864 1.00235,0.20739 1.07147,0.24197 0.0691,0.0518 1.43439,0.17279 3.04163,0.25922 3.16256,0.19009 4.476,0.36288 5.92767,0.79495 1.72821,0.50118 3.36999,1.12332 3.49096,1.31341 0.0519,0.12097 0.67402,0.48392 1.36527,0.81229 1.1752,0.58756 1.26157,0.67398 1.5208,1.48621 0.5876,1.78007 2.16026,3.64647 3.73292,4.42419 0.65671,0.32834 1.27888,0.81223 1.72818,1.33072 0.91025,1.11252 1.393,1.4523 2.00962,1.4523 0.0156,0 0.0312,-2.1e-4 0.047,-6.4e-4 0.69126,-0.0173 0.96778,-0.432 0.96778,-1.45166 0,-0.93326 -0.50119,-1.901 -1.31346,-2.54044 -0.25808,-0.18927 -0.39626,-0.36148 -0.3122,-0.36297 h 0.003 c 0.39908,0.004 1.4343,0.95315 2.59006,2.36767 0.92343,1.14002 1.41817,1.61826 1.84147,1.61826 0.21837,0 0.41775,-0.12729 0.64712,-0.35669 0.41476,-0.41477 0.43206,-0.74313 0.0864,-1.10602 -0.15554,-0.1383 -0.32837,-0.60485 -0.41476,-1.01968 -0.1037,-0.53571 -0.32838,-0.98505 -0.77768,-1.43439 -0.65192,-0.66336 -0.9481,-1.09208 -0.8234,-1.09578 h 0.003 c 0.0663,0.002 0.23901,0.11138 0.52624,0.35265 0.39747,0.32837 0.96778,0.76045 1.26157,0.98508 0.29379,0.20739 0.81226,0.62219 1.1406,0.89865 0.40457,0.3439 0.90383,0.52798 1.28305,0.52798 0.26873,0 0.47718,-0.0925 0.54885,-0.28601 0.0394,-0.10595 0.0681,-0.21512 0.0869,-0.32355 h -0.003 q 0.016,-0.001 0.0317,-0.003 0.11128,-0.004 0.1257,-0.0892 0.009,-0.0934 0.008,-0.21094 -0.03,-0.29932 -0.0259,-0.565 -0.0436,-0.29056 -0.1875,-0.4971 l -0.3696,-0.55368 -0.53735,-0.46194 -0.60648,-0.63123 q -0.0803,-0.082 -0.16817,-0.15644 l -0.33772,-0.28061 q -0.33722,-0.2312 -0.58958,-0.44182 h 0.003 q 0.3062,0.0995 0.6551,0.18456 h -0.003 c 0.098,0.075 0.19638,0.15701 0.29419,0.24536 0.37717,0.33521 0.68444,0.49898 0.97194,0.49898 0.18672,0 0.36513,-0.0691 0.54888,-0.20522 0.38022,-0.29376 0.38022,-0.34564 0.13824,-0.81225 -0.0625,-0.12503 -0.11444,-0.25009 -0.14938,-0.35596 h -0.003 q 0.0273,-0.36233 2.5e-4,-0.48425 -0.01,-0.0864 -0.0401,-0.16489 l -0.16708,-0.33316 q -0.24902,-0.58942 -0.26599,-0.71551 -0.12505,-0.17048 -0.4039,-0.47883 l -0.61875,-0.84466 -0.15444,-0.18521 q -0.0586,-0.0666 -0.2818,-0.22504 l -0.86682,-0.6188 h -0.003 c -0.0523,-0.42752 -0.4476,-1.03752 -0.76085,-1.03752 -0.15553,0 -0.88136,-0.19008 -1.57265,-0.432 -0.69128,-0.24197 -1.41708,-0.43206 -1.60721,-0.43206 -0.19009,0 -0.48391,-0.10367 -0.62216,-0.22467 -0.32632,-0.27973 -2.02225,-0.85294 -2.77536,-0.96557 h -0.003 q -0.008,-0.005 -0.0163,-0.01 -0.0647,-0.0409 -0.28232,-0.13455 l -0.13755,-0.0721 q -0.17034,-0.061 -0.44137,-0.0718 h -0.003 c -0.0205,-0.0192 -0.0393,-0.0391 -0.0561,-0.0596 -0.15551,-0.17288 -0.79495,-0.57031 -1.39981,-0.88141 -0.69316,-0.35315 -1.03991,-0.48852 -1.41476,-0.48852 -0.12048,0 -0.24387,0.014 -0.38257,0.0392 -0.084,0.0126 -0.17398,0.0191 -0.27073,0.0191 -0.69884,0 -1.75307,-0.33786 -3.51403,-1.14243 -0.39749,-0.1728 -0.81225,-0.32836 -0.91592,-0.32836 -0.1037,0 -0.84683,-0.32831 -1.67635,-0.70854 -2.60957,-1.24428 -2.8688,-1.34798 -3.73292,-1.53807 -0.46658,-0.10373 -1.00235,-0.27653 -1.19245,-0.38023 -0.19009,-0.1037 -0.7431,-0.27648 -1.22703,-0.39748 -0.48384,-0.12097 -1.41707,-0.43204 -2.09108,-0.69129 -0.65672,-0.25921 -1.64179,-0.58755 -2.16025,-0.72583 -0.51847,-0.13824 -1.03693,-0.32837 -1.12332,-0.39746 -0.34565,-0.29379 -2.93793,-1.01964 -3.97482,-1.12334 -0.57033,-0.0691 -1.39985,-0.1901 -1.83191,-0.2765 -0.27652,-0.0605 -0.58326,-0.0908 -0.93106,-0.0908 -0.34778,0 -0.73664,0.0302 -1.17731,0.0908 -0.3552,0.0478 -0.78333,0.0707 -1.26377,0.0707 -1.95068,0 -4.76431,-0.37647 -7.06613,-0.9866 -1.10605,-0.2938 -2.9552,-0.63945 -3.62921,-0.65671 -0.0835,-0.002 -0.17914,-0.004 -0.28506,-0.004 -1.40705,0 -4.6211,0.20331 -5.05506,0.33193 -0.1326,0.0398 -0.34546,0.0581 -0.60332,0.0581 -0.7503,0 -1.8816,-0.15494 -2.5247,-0.38644 -0.81204,-0.28764 -3.5949,-0.67456 -4.76562,-0.67456 -0.0252,0 -0.0497,1.8e-4 -0.0733,5.5e-4 -3.0589,0.0345 -3.99212,0.20743 -5.58207,1.0715 -1.227,0.65671 -3.30086,1.31337 -4.52785,1.45167 -0.32837,0.0346 -0.84683,0.12093 -1.14063,0.1728 -0.12649,0.0267 -0.24272,0.0405 -0.34179,0.0405 -0.15808,0 -0.27243,-0.0351 -0.31491,-0.10955 -0.0752,-0.12532 -0.47342,-0.18602 -0.92922,-0.18602 -0.48717,0 -1.0401,0.0693 -1.33473,0.20325 -0.15367,0.0668 -0.26083,0.10527 -0.34947,0.10527 -0.14064,0 -0.2346,-0.0967 -0.39363,-0.3299 -0.63944,-0.8814 -1.07147,-2.16026 -0.91597,-2.71327 0.1037,-0.34563 0.0519,-1.00233 -0.1728,-2.03923 -0.17283,-0.8814 -0.31107,-2.28123 -0.32838,-3.2663 0,-0.9505 -0.12097,-2.22938 -0.27649,-2.85154 -0.29379,-1.29614 -1.7109,-4.33774 -2.59228,-5.63388 -0.72586,-1.03693 -2.90338,-2.64413 -3.9057,-2.8688 -0.36295,-0.0692 -0.98508,-0.2074 -1.38257,-0.31108 -0.44803,-0.093 -1.0697,-0.1405 -1.70931,-0.1405 z"
                   inkscape:connector-curvature="0"
                   style="fill:#0055d4" />
              </g>
            </g>
          </g>
          <flowRoot
             xml:space="preserve"
             id="flowRoot1148"
             style="font-style:normal;font-variant:normal;font-weight:normal;font-stretch:normal;font-size:40px;line-height:1.25;font-family:'Party Confetti';-inkscape-font-specification:'Party Confetti';letter-spacing:14.96000004px;word-spacing:0px;fill:#000000;fill-opacity:1;stroke:none"><flowRegion
               id="flowRegion1150"><rect
                 id="rect1152"
                 width="655.44604"
                 height="515.91132"
                 x="29.375732"
                 y="15.42178" /></flowRegion><flowPara
               id="flowPara1154" /></flowRoot>        </g>
      </g>
    </g>
  </g>
</svg>
